{
	"process_id" : 5684,
	"version" : "2020.1.4f1",
	"app_path" : "C:/Program Files/Unity/Hub/Editor/2020.1.4f1/Editor/Unity.exe",
	"app_contents_path" : "C:/Program Files/Unity/Hub/Editor/2020.1.4f1/Editor/Data"
}